{
	"info": {
		"_postman_id": "6d688649-c003-471b-868c-498029ebbd0a",
		"name": "BEJ GOLD",
		"schema": "https://schema.getpostman.com/json/collection/v2.1.0/collection.json"
	},
	"item": [
		{
			"name": "USERS",
			"item": [
				{
					"name": "User Add",
					"request": {
						"method": "POST",
						"header": [],
						"body": {
							"mode": "raw",
							"raw": "{\r\n    \"name\": \"kacang\",\r\n    \"address\": \"yogya\",\r\n    \"noHP\": \"0884393382\",\r\n    \"email\": \"kacang@gmail.com\",\r\n    \"password\": \"password\"\r\n}",
							"options": {
								"raw": {
									"language": "json"
								}
							}
						},
						"url": {
							"raw": "localhost:5050/users/add",
							"host": [
								"localhost"
							],
							"port": "5050",
							"path": [
								"users",
								"add"
							]
						}
					},
					"response": [
						{
							"name": "User Add",
							"originalRequest": {
								"method": "POST",
								"header": [],
								"body": {
									"mode": "raw",
									"raw": "{\r\n     \"firstName\": \"beruang\",\r\n    \"lastName\": \"Madu\",\r\n    \"email\": \"maduberuang@gmail.com\"\r\n}",
									"options": {
										"raw": {
											"language": "json"
										}
									}
								},
								"url": {
									"raw": "localhost:5050/users/add",
									"host": [
										"localhost"
									],
									"port": "5050",
									"path": [
										"users",
										"add"
									]
								}
							},
							"status": "OK",
							"code": 200,
							"_postman_previewlanguage": "json",
							"header": [
								{
									"key": "X-Powered-By",
									"value": "Express"
								},
								{
									"key": "Content-Type",
									"value": "application/json; charset=utf-8"
								},
								{
									"key": "Content-Length",
									"value": "159"
								},
								{
									"key": "ETag",
									"value": "W/\"9f-7cDM7bER814Tmj6sbTJxs0u8Zt0\""
								},
								{
									"key": "Date",
									"value": "Mon, 03 Apr 2023 15:38:26 GMT"
								},
								{
									"key": "Connection",
									"value": "keep-alive"
								},
								{
									"key": "Keep-Alive",
									"value": "timeout=5"
								}
							],
							"cookie": [],
							"body": "{\n    \"id\": 10,\n    \"firstName\": \"beruang\",\n    \"lastName\": \"Madu\",\n    \"email\": \"maduberuang@gmail.com\",\n    \"updatedAt\": \"2023-04-03T15:38:26.556Z\",\n    \"createdAt\": \"2023-04-03T15:38:26.556Z\"\n}"
						}
					]
				},
				{
					"name": "User By ID",
					"request": {
						"method": "GET",
						"header": [],
						"url": {
							"raw": "localhost:5050/users/6",
							"host": [
								"localhost"
							],
							"port": "5050",
							"path": [
								"users",
								"6"
							]
						}
					},
					"response": [
						{
							"name": "User By ID",
							"originalRequest": {
								"method": "GET",
								"header": [],
								"url": {
									"raw": "localhost:5050/users/10",
									"host": [
										"localhost"
									],
									"port": "5050",
									"path": [
										"users",
										"10"
									]
								}
							},
							"status": "OK",
							"code": 200,
							"_postman_previewlanguage": "json",
							"header": [
								{
									"key": "X-Powered-By",
									"value": "Express"
								},
								{
									"key": "Content-Type",
									"value": "application/json; charset=utf-8"
								},
								{
									"key": "Content-Length",
									"value": "161"
								},
								{
									"key": "ETag",
									"value": "W/\"a1-4o4MCQJrwsWlP+6NKKgHSLdDZZk\""
								},
								{
									"key": "Date",
									"value": "Mon, 03 Apr 2023 15:38:44 GMT"
								},
								{
									"key": "Connection",
									"value": "keep-alive"
								},
								{
									"key": "Keep-Alive",
									"value": "timeout=5"
								}
							],
							"cookie": [],
							"body": "[\n    {\n        \"id\": 10,\n        \"firstName\": \"beruang\",\n        \"lastName\": \"Madu\",\n        \"email\": \"maduberuang@gmail.com\",\n        \"createdAt\": \"2023-04-03T15:38:26.556Z\",\n        \"updatedAt\": \"2023-04-03T15:38:26.556Z\"\n    }\n]"
						}
					]
				},
				{
					"name": "User Delete",
					"request": {
						"method": "DELETE",
						"header": [],
						"url": {
							"raw": "localhost:5050/users/delete/6",
							"host": [
								"localhost"
							],
							"port": "5050",
							"path": [
								"users",
								"delete",
								"6"
							]
						}
					},
					"response": []
				},
				{
					"name": "User Get All",
					"protocolProfileBehavior": {
						"disableBodyPruning": true
					},
					"request": {
						"method": "GET",
						"header": [],
						"body": {
							"mode": "raw",
							"raw": "",
							"options": {
								"raw": {
									"language": "json"
								}
							}
						},
						"url": {
							"raw": "localhost:5050/users",
							"host": [
								"localhost"
							],
							"port": "5050",
							"path": [
								"users"
							]
						}
					},
					"response": [
						{
							"name": "User Get All",
							"originalRequest": {
								"method": "GET",
								"header": [],
								"body": {
									"mode": "raw",
									"raw": "",
									"options": {
										"raw": {
											"language": "json"
										}
									}
								},
								"url": {
									"raw": "localhost:5050/users",
									"host": [
										"localhost"
									],
									"port": "5050",
									"path": [
										"users"
									]
								}
							},
							"status": "OK",
							"code": 200,
							"_postman_previewlanguage": "json",
							"header": [
								{
									"key": "X-Powered-By",
									"value": "Express"
								},
								{
									"key": "Content-Type",
									"value": "application/json; charset=utf-8"
								},
								{
									"key": "Content-Length",
									"value": "917"
								},
								{
									"key": "ETag",
									"value": "W/\"395-AhSu4NCJTvf1nWXmwWlP2GnxH44\""
								},
								{
									"key": "Date",
									"value": "Mon, 03 Apr 2023 15:36:19 GMT"
								},
								{
									"key": "Connection",
									"value": "keep-alive"
								},
								{
									"key": "Keep-Alive",
									"value": "timeout=5"
								}
							],
							"cookie": [],
							"body": "[\n    {\n        \"id\": 3,\n        \"firstName\": \"Eggy\",\n        \"lastName\": \"Suprapman\",\n        \"email\": \"eg.su@mail.com\",\n        \"createdAt\": \"2022-12-11T10:38:42.033Z\",\n        \"updatedAt\": \"2022-12-11T10:38:42.033Z\"\n    },\n    {\n        \"id\": 4,\n        \"firstName\": \"LALA\",\n        \"lastName\": \"LILI\",\n        \"email\": \"wkwk@mail.com\",\n        \"createdAt\": \"2022-12-11T10:38:42.033Z\",\n        \"updatedAt\": \"2022-12-11T10:38:42.033Z\"\n    },\n    {\n        \"id\": 5,\n        \"firstName\": \"Dyah ayi\",\n        \"lastName\": \"yogya\",\n        \"email\": \"email@gmail.com\",\n        \"createdAt\": \"2023-03-30T15:14:36.333Z\",\n        \"updatedAt\": \"2023-03-30T15:14:36.333Z\"\n    },\n    {\n        \"id\": 6,\n        \"firstName\": \"Masbro\",\n        \"lastName\": \"Guan\",\n        \"email\": \"capibara@gmail.com\",\n        \"createdAt\": \"2023-03-30T15:18:37.206Z\",\n        \"updatedAt\": \"2023-03-30T15:18:37.206Z\"\n    },\n    {\n        \"id\": 7,\n        \"firstName\": \"milibro\",\n        \"lastName\": \"Guan\",\n        \"email\": \"cmeng@gmail.com\",\n        \"createdAt\": \"2023-03-30T15:43:34.409Z\",\n        \"updatedAt\": \"2023-03-30T15:43:34.409Z\"\n    },\n    {\n        \"id\": 8,\n        \"firstName\": \"bebek\",\n        \"lastName\": \"haha\",\n        \"email\": \"wkwkg@gmail.com\",\n        \"createdAt\": \"2023-03-30T15:47:20.867Z\",\n        \"updatedAt\": \"2023-03-30T15:47:20.867Z\"\n    }\n]"
						}
					]
				}
			]
		},
		{
			"name": "ITEMS",
			"item": [
				{
					"name": "Item Add",
					"request": {
						"method": "POST",
						"header": [],
						"body": {
							"mode": "raw",
							"raw": "{\r\n    \"name\": \"Magicom 0.5 liter\",\r\n    \"description\": \"untuk Masak Nasi\",\r\n    \"price\": \"200000\"\r\n}",
							"options": {
								"raw": {
									"language": "json"
								}
							}
						},
						"url": {
							"raw": "localhost:5050/items/add",
							"host": [
								"localhost"
							],
							"port": "5050",
							"path": [
								"items",
								"add"
							]
						}
					},
					"response": [
						{
							"name": "Item Add",
							"originalRequest": {
								"method": "POST",
								"header": [],
								"body": {
									"mode": "raw",
									"raw": "{\r\n    \"name\": \"Magicom 0.5 liter\",\r\n    \"description\": \"untuk Masak Nasi\",\r\n    \"price\": \"200000\"\r\n}",
									"options": {
										"raw": {
											"language": "json"
										}
									}
								},
								"url": {
									"raw": "localhost:5050/items/add",
									"host": [
										"localhost"
									],
									"port": "5050",
									"path": [
										"items",
										"add"
									]
								}
							},
							"status": "OK",
							"code": 200,
							"_postman_previewlanguage": "json",
							"header": [
								{
									"key": "X-Powered-By",
									"value": "Express"
								},
								{
									"key": "Content-Type",
									"value": "application/json; charset=utf-8"
								},
								{
									"key": "Content-Length",
									"value": "183"
								},
								{
									"key": "ETag",
									"value": "W/\"b7-LzzAs9nxwZorauvWX9iEZz5sPXs\""
								},
								{
									"key": "Date",
									"value": "Mon, 03 Apr 2023 15:35:44 GMT"
								},
								{
									"key": "Connection",
									"value": "keep-alive"
								},
								{
									"key": "Keep-Alive",
									"value": "timeout=5"
								}
							],
							"cookie": [],
							"body": "{\n    \"status\": 200,\n    \"data\": {\n        \"id\": 2,\n        \"name\": \"Magicom 0.5 liter\",\n        \"description\": \"untuk Masak Nasi\",\n        \"price\": 200000,\n        \"updatedAt\": \"2023-04-03T15:35:43.853Z\",\n        \"createdAt\": \"2023-04-03T15:35:43.853Z\"\n    }\n}"
						}
					]
				},
				{
					"name": "User By ID",
					"request": {
						"method": "GET",
						"header": []
					},
					"response": [
						{
							"name": "User By ID",
							"originalRequest": {
								"method": "GET",
								"header": [],
								"url": {
									"raw": "localhost:5050/items/2",
									"host": [
										"localhost"
									],
									"port": "5050",
									"path": [
										"items",
										"2"
									]
								}
							},
							"status": "OK",
							"code": 200,
							"_postman_previewlanguage": "json",
							"header": [
								{
									"key": "X-Powered-By",
									"value": "Express"
								},
								{
									"key": "Content-Type",
									"value": "application/json; charset=utf-8"
								},
								{
									"key": "Content-Length",
									"value": "163"
								},
								{
									"key": "ETag",
									"value": "W/\"a3-uJDbiaSSh/poT54FOscfhhEDCpc\""
								},
								{
									"key": "Date",
									"value": "Mon, 03 Apr 2023 15:41:09 GMT"
								},
								{
									"key": "Connection",
									"value": "keep-alive"
								},
								{
									"key": "Keep-Alive",
									"value": "timeout=5"
								}
							],
							"cookie": [],
							"body": "[\n    {\n        \"id\": 2,\n        \"name\": \"Magicom 0.5 liter\",\n        \"description\": \"untuk Masak Nasi\",\n        \"price\": 200000,\n        \"createdAt\": \"2023-04-03T15:35:43.853Z\",\n        \"updatedAt\": \"2023-04-03T15:35:43.853Z\"\n    }\n]"
						}
					]
				},
				{
					"name": "User Delete",
					"request": {
						"method": "DELETE",
						"header": [],
						"url": {
							"raw": "localhost:5050/users/delete/6",
							"host": [
								"localhost"
							],
							"port": "5050",
							"path": [
								"users",
								"delete",
								"6"
							]
						}
					},
					"response": []
				},
				{
					"name": "User Get All",
					"request": {
						"method": "GET",
						"header": []
					},
					"response": [
						{
							"name": "User Get All",
							"originalRequest": {
								"method": "GET",
								"header": [],
								"url": {
									"raw": "localhost:5050/items",
									"host": [
										"localhost"
									],
									"port": "5050",
									"path": [
										"items"
									]
								}
							},
							"status": "OK",
							"code": 200,
							"_postman_previewlanguage": "json",
							"header": [
								{
									"key": "X-Powered-By",
									"value": "Express"
								},
								{
									"key": "Content-Type",
									"value": "application/json; charset=utf-8"
								},
								{
									"key": "Content-Length",
									"value": "316"
								},
								{
									"key": "ETag",
									"value": "W/\"13c-FIhXCES7YTZLB4FItLKR7+Ot10s\""
								},
								{
									"key": "Date",
									"value": "Mon, 03 Apr 2023 15:41:32 GMT"
								},
								{
									"key": "Connection",
									"value": "keep-alive"
								},
								{
									"key": "Keep-Alive",
									"value": "timeout=5"
								}
							],
							"cookie": [],
							"body": "[\n    {\n        \"id\": 1,\n        \"name\": \"Blender\",\n        \"description\": \"yoguntuk buat jus\",\n        \"price\": 300000,\n        \"createdAt\": \"2023-04-03T15:34:59.399Z\",\n        \"updatedAt\": \"2023-04-03T15:34:59.399Z\"\n    },\n    {\n        \"id\": 2,\n        \"name\": \"Magicom 0.5 liter\",\n        \"description\": \"untuk Masak Nasi\",\n        \"price\": 200000,\n        \"createdAt\": \"2023-04-03T15:35:43.853Z\",\n        \"updatedAt\": \"2023-04-03T15:35:43.853Z\"\n    }\n]"
						}
					]
				}
			]
		},
		{
			"name": "ORDERS",
			"item": [
				{
					"name": "Item Add",
					"request": {
						"method": "POST",
						"header": [],
						"body": {
							"mode": "raw",
							"raw": "{\r\n    \"user_id\": \"8\",\r\n    \"item_id\": \"1\",\r\n    \"quantity\": \"2\",\r\n    \"status\": \"PENDING\"\r\n}",
							"options": {
								"raw": {
									"language": "json"
								}
							}
						},
						"url": {
							"raw": "localhost:5050/order/add",
							"host": [
								"localhost"
							],
							"port": "5050",
							"path": [
								"order",
								"add"
							]
						}
					},
					"response": [
						{
							"name": "Item Add",
							"originalRequest": {
								"method": "POST",
								"header": [],
								"body": {
									"mode": "raw",
									"raw": "{\r\n    \"user_id\": \"10\",\r\n    \"item_id\": \"2\",\r\n    \"quantity\": \"3\",\r\n    \"status\": \"PENDING\"\r\n}",
									"options": {
										"raw": {
											"language": "json"
										}
									}
								},
								"url": {
									"raw": "localhost:5050/order/add",
									"host": [
										"localhost"
									],
									"port": "5050",
									"path": [
										"order",
										"add"
									]
								}
							},
							"status": "OK",
							"code": 200,
							"_postman_previewlanguage": "json",
							"header": [
								{
									"key": "X-Powered-By",
									"value": "Express"
								},
								{
									"key": "Content-Type",
									"value": "application/json; charset=utf-8"
								},
								{
									"key": "Content-Length",
									"value": "205"
								},
								{
									"key": "ETag",
									"value": "W/\"cd-AYe62I6SPSArlymjp1C44QFHMIM\""
								},
								{
									"key": "Date",
									"value": "Mon, 03 Apr 2023 16:02:21 GMT"
								},
								{
									"key": "Connection",
									"value": "keep-alive"
								},
								{
									"key": "Keep-Alive",
									"value": "timeout=5"
								}
							],
							"cookie": [],
							"body": "{\n    \"status\": 200,\n    \"data\": {\n        \"id\": 1,\n        \"user_id\": 10,\n        \"item_id\": 2,\n        \"order_date\": \"2023-04-03T16:02:21.079Z\",\n        \"quantity\": 3,\n        \"status\": \"PENDING\",\n        \"updatedAt\": \"2023-04-03T16:02:21.089Z\",\n        \"createdAt\": \"2023-04-03T16:02:21.089Z\"\n    }\n}"
						}
					]
				},
				{
					"name": "User By ID",
					"request": {
						"method": "GET",
						"header": [],
						"url": {
							"raw": "localhost:5050/order/2",
							"host": [
								"localhost"
							],
							"port": "5050",
							"path": [
								"order",
								"2"
							]
						}
					},
					"response": [
						{
							"name": "User relasi By ID",
							"originalRequest": {
								"method": "GET",
								"header": [],
								"url": {
									"raw": "localhost:5050/order/2",
									"host": [
										"localhost"
									],
									"port": "5050",
									"path": [
										"order",
										"2"
									]
								}
							},
							"status": "OK",
							"code": 200,
							"_postman_previewlanguage": "json",
							"header": [
								{
									"key": "X-Powered-By",
									"value": "Express"
								},
								{
									"key": "Content-Type",
									"value": "application/json; charset=utf-8"
								},
								{
									"key": "Content-Length",
									"value": "502"
								},
								{
									"key": "ETag",
									"value": "W/\"1f6-hlqEWrUfBv1+QhIZFjL5Hc0uyxs\""
								},
								{
									"key": "Date",
									"value": "Mon, 03 Apr 2023 16:13:10 GMT"
								},
								{
									"key": "Connection",
									"value": "keep-alive"
								},
								{
									"key": "Keep-Alive",
									"value": "timeout=5"
								}
							],
							"cookie": [],
							"body": "[\n    {\n        \"id\": 2,\n        \"item_id\": 1,\n        \"user_id\": 8,\n        \"order_date\": \"2023-04-03T16:03:57.850Z\",\n        \"quantity\": 2,\n        \"status\": \"PENDING\",\n        \"createdAt\": \"2023-04-03T16:03:57.851Z\",\n        \"updatedAt\": \"2023-04-03T16:03:57.851Z\",\n        \"User\": {\n            \"id\": 8,\n            \"firstName\": \"bebek\",\n            \"lastName\": \"haha\",\n            \"email\": \"wkwkg@gmail.com\",\n            \"createdAt\": \"2023-03-30T15:47:20.867Z\",\n            \"updatedAt\": \"2023-03-30T15:47:20.867Z\"\n        },\n        \"Item\": {\n            \"id\": 1,\n            \"name\": \"Blender\",\n            \"description\": \"yoguntuk buat jus\",\n            \"price\": 300000,\n            \"createdAt\": \"2023-04-03T15:34:59.399Z\",\n            \"updatedAt\": \"2023-04-03T15:34:59.399Z\"\n        }\n    }\n]"
						}
					]
				},
				{
					"name": "User Get All",
					"request": {
						"method": "GET",
						"header": [],
						"url": {
							"raw": "localhost:5050/order",
							"host": [
								"localhost"
							],
							"port": "5050",
							"path": [
								"order"
							]
						}
					},
					"response": [
						{
							"name": "User relasi Get All",
							"originalRequest": {
								"method": "GET",
								"header": [],
								"url": {
									"raw": "localhost:5050/order",
									"host": [
										"localhost"
									],
									"port": "5050",
									"path": [
										"order"
									]
								}
							},
							"status": "OK",
							"code": 200,
							"_postman_previewlanguage": "json",
							"header": [
								{
									"key": "X-Powered-By",
									"value": "Express"
								},
								{
									"key": "Content-Type",
									"value": "application/json; charset=utf-8"
								},
								{
									"key": "Content-Length",
									"value": "1022"
								},
								{
									"key": "ETag",
									"value": "W/\"3fe-svGYtXEvJM0gQ7QGKRLsiQB7DOY\""
								},
								{
									"key": "Date",
									"value": "Mon, 03 Apr 2023 16:11:29 GMT"
								},
								{
									"key": "Connection",
									"value": "keep-alive"
								},
								{
									"key": "Keep-Alive",
									"value": "timeout=5"
								}
							],
							"cookie": [],
							"body": "[\n    {\n        \"id\": 1,\n        \"item_id\": 2,\n        \"user_id\": 10,\n        \"order_date\": \"2023-04-03T16:02:21.079Z\",\n        \"quantity\": 3,\n        \"status\": \"PENDING\",\n        \"createdAt\": \"2023-04-03T16:02:21.089Z\",\n        \"updatedAt\": \"2023-04-03T16:02:21.089Z\",\n        \"User\": {\n            \"id\": 10,\n            \"firstName\": \"beruang\",\n            \"lastName\": \"Madu\",\n            \"email\": \"maduberuang@gmail.com\",\n            \"createdAt\": \"2023-04-03T15:38:26.556Z\",\n            \"updatedAt\": \"2023-04-03T15:38:26.556Z\"\n        },\n        \"Item\": {\n            \"id\": 2,\n            \"name\": \"Magicom 0.5 liter\",\n            \"description\": \"untuk Masak Nasi\",\n            \"price\": 200000,\n            \"createdAt\": \"2023-04-03T15:35:43.853Z\",\n            \"updatedAt\": \"2023-04-03T15:35:43.853Z\"\n        }\n    },\n    {\n        \"id\": 2,\n        \"item_id\": 1,\n        \"user_id\": 8,\n        \"order_date\": \"2023-04-03T16:03:57.850Z\",\n        \"quantity\": 2,\n        \"status\": \"PENDING\",\n        \"createdAt\": \"2023-04-03T16:03:57.851Z\",\n        \"updatedAt\": \"2023-04-03T16:03:57.851Z\",\n        \"User\": {\n            \"id\": 8,\n            \"firstName\": \"bebek\",\n            \"lastName\": \"haha\",\n            \"email\": \"wkwkg@gmail.com\",\n            \"createdAt\": \"2023-03-30T15:47:20.867Z\",\n            \"updatedAt\": \"2023-03-30T15:47:20.867Z\"\n        },\n        \"Item\": {\n            \"id\": 1,\n            \"name\": \"Blender\",\n            \"description\": \"yoguntuk buat jus\",\n            \"price\": 300000,\n            \"createdAt\": \"2023-04-03T15:34:59.399Z\",\n            \"updatedAt\": \"2023-04-03T15:34:59.399Z\"\n        }\n    }\n]"
						}
					]
				}
			]
		},
		{
			"name": "Login",
			"request": {
				"method": "POST",
				"header": [],
				"body": {
					"mode": "raw",
					"raw": "{\r\n    \"email\" : \"wkwk@mail.com\",\r\n    \"lastName\": \"LILI\"\r\n}",
					"options": {
						"raw": {
							"language": "json"
						}
					}
				},
				"url": {
					"raw": "localhost:5050/login",
					"host": [
						"localhost"
					],
					"port": "5050",
					"path": [
						"login"
					]
				}
			},
			"response": [
				{
					"name": "Login failed",
					"originalRequest": {
						"method": "POST",
						"header": [],
						"body": {
							"mode": "raw",
							"raw": "{\r\n    \"email\" : \"wkwk@mail.com\",\r\n    \"lastName\": \"wkwk\"\r\n}",
							"options": {
								"raw": {
									"language": "json"
								}
							}
						},
						"url": {
							"raw": "localhost:5050/login",
							"host": [
								"localhost"
							],
							"port": "5050",
							"path": [
								"login"
							]
						}
					},
					"status": "Created",
					"code": 201,
					"_postman_previewlanguage": "json",
					"header": [
						{
							"key": "X-Powered-By",
							"value": "Express"
						},
						{
							"key": "Content-Type",
							"value": "application/json; charset=utf-8"
						},
						{
							"key": "Content-Length",
							"value": "44"
						},
						{
							"key": "ETag",
							"value": "W/\"2c-t0NdDKWz+hV+7cwN32bF+VvLLkI\""
						},
						{
							"key": "Date",
							"value": "Mon, 03 Apr 2023 14:36:09 GMT"
						},
						{
							"key": "Connection",
							"value": "keep-alive"
						},
						{
							"key": "Keep-Alive",
							"value": "timeout=5"
						}
					],
					"cookie": [],
					"body": "\"login failed, email and password not match\""
				},
				{
					"name": "Login Success",
					"originalRequest": {
						"method": "POST",
						"header": [],
						"body": {
							"mode": "raw",
							"raw": "{\r\n    \"email\" : \"wkwk@mail.com\",\r\n    \"lastName\": \"LILI\"\r\n}",
							"options": {
								"raw": {
									"language": "json"
								}
							}
						},
						"url": {
							"raw": "localhost:5050/login",
							"host": [
								"localhost"
							],
							"port": "5050",
							"path": [
								"login"
							]
						}
					},
					"status": "OK",
					"code": 200,
					"_postman_previewlanguage": "json",
					"header": [
						{
							"key": "X-Powered-By",
							"value": "Express"
						},
						{
							"key": "Content-Type",
							"value": "application/json; charset=utf-8"
						},
						{
							"key": "Content-Length",
							"value": "38"
						},
						{
							"key": "ETag",
							"value": "W/\"26-gQapyLvSCCof8R6tH0cvCbqvM2c\""
						},
						{
							"key": "Date",
							"value": "Mon, 03 Apr 2023 15:39:42 GMT"
						},
						{
							"key": "Connection",
							"value": "keep-alive"
						},
						{
							"key": "Keep-Alive",
							"value": "timeout=5"
						}
					],
					"cookie": [],
					"body": "\"login seccess, welcome wkwk@mail.com\""
				}
			]
		}
	]
}